Project 1: Exploratory Data Analysis
…
# Grouping
fulldat %>% group_by(Legalization.Status) %>% arrange(Total..aggravated..assaults1)

## # A tibble: 50 x 5
## # Groups:   Legalization.Status [3]
##    State        Total..aggravated..assau… Firearms Population Legalization.Stat…
##    <fct>                            <dbl>    <dbl>      <dbl> <fct>             
##  1 Vermont                            302       39     348314 Medical Use       
##  2 Maine                              948       74    1331479 Medical Use       
##  3 Wyoming                           1087       90     556446 illegal           
##  4 North Dakota                      1207       60     753138 Medical Use       
##  5 Rhode Island                      1312      268     983740 Medical Use       
##  6 New Hampshi…                      1546      302    1275170 Medical Use       
##  7 Illinois                          1745      955     147363 Medical Use       
##  8 South Dakota                      2176      235     791627 illegal           
##  9 Mississippi                       2469      902    1565661 illegal           
## 10 Hawaii                            2769      180    1428557 Medical Use       
## # … with 40 more rows

# Filter
fulldat %>% group_by(State) %>% filter(Legalization.Status == 
    "illegal")

## # A tibble: 22 x 5
## # Groups:   State [22]
##    State       Total..aggravated..assaul… Firearms Population Legalization.Stat…
##    <fct>                            <dbl>    <dbl>      <dbl> <fct>             
##  1 Alabama                          17364     3994    4392449 illegal           
##  2 Georgia                          22896     8329    9639636 illegal           
##  3 Idaho                             2866      613    1680830 illegal           
##  4 Indiana                          14225     3233    4663407 illegal           
##  5 Iowa                              6321      920    2867132 illegal           
##  6 Kansas                            6441     2223    2211329 illegal           
##  7 Kentucky                          5035     1714    4424357 illegal           
##  8 Mississippi                       2469      902    1565661 illegal           
##  9 Missouri                         21610     7914    5939159 illegal           
## 10 Nebraska                          3409      763    1820419 illegal           
## # … with 12 more rows
…
